{
  "name": "",
  "css_prefix_text": "icon-",
  "css_use_suffix": false,
  "hinting": true,
  "units_per_em": 1000,
  "ascent": 850,
  "glyphs": [
    {
      "uid": "d7271d490b71df4311e32cdacae8b331",
      "css": "home",
      "code": 59392,
      "src": "fontawesome"
    },
    {
      "uid": "20fc52f9a88bb7bda023ef209acac095",
      "css": "graduation-cap",
      "code": 61853,
      "src": "fontawesome"
    },
    {
      "uid": "0f6a2573a7b6df911ed199bb63717e27",
      "css": "github-circled",
      "code": 61595,
      "src": "fontawesome"
    },
    {
      "uid": "9755f76110ae4d12ac5f9466c9152031",
      "css": "book",
      "code": 59393,
      "src": "fontawesome"
    },
    {
      "uid": "9f7e588c66cfd6891f6f507cf6f6596b",
      "css": "phone",
      "code": 59394,
      "src": "fontawesome"
    },
    {
      "uid": "9a76bc135eac17d2c8b8ad4a5774fc87",
      "css": "download",
      "code": 59395,
      "src": "fontawesome"
    },
    {
      "uid": "5278ef7773e948d56c4d442c8c8c98cf",
      "css": "lightbulb",
      "code": 61675,
      "src": "fontawesome"
    },
    {
      "uid": "4b2321afcbe0505a70b80abd5c25e09b",
      "css": "paper-plane-empty",
      "code": 61913,
      "src": "fontawesome"
    },
    {
      "uid": "500fc1f109021e4b1de4deda2f7ed399",
      "css": "laptop",
      "code": 61705,
      "src": "fontawesome"
    },
    {
      "uid": "0d08dbb1dd648a43bdea81b7e6c9e036",
      "css": "location",
      "code": 59396,
      "src": "fontawesome"
    },
    {
      "uid": "bf882b30900da12fca090d9796bc3030",
      "css": "mail",
      "code": 59397,
      "src": "fontawesome"
    },
    {
      "uid": "e5e2804a6d7681eb37e80a1fc380fe49",
      "css": "wristwatch",
      "code": 59398,
      "src": "typicons"
    },
    {
      "uid": "757afacc32d82967975cbb3b45cfb41b",
      "css": "desktop",
      "code": 61704,
      "src": "fontawesome"
    },
    {
      "uid": "dd6c6b221a1088ff8a9b9cd32d0b3dd5",
      "css": "check",
      "code": 59399,
      "src": "fontawesome"
    },
    {
      "uid": "31972e4e9d080eaa796290349ae6c1fd",
      "css": "users",
      "code": 59400,
      "src": "fontawesome"
    },
    {
      "uid": "c53068fe21c8410b0a098b4c52c3d37e",
      "css": "down-circled2",
      "code": 59401,
      "src": "fontawesome"
    },
    {
      "uid": "128d63150a41800e0beff55235269542",
      "css": "up-circled2",
      "code": 59402,
      "src": "fontawesome"
    },
    {
      "uid": "a65ca48f3fe7d6e5c60edbd943f4fdb6",
      "css": "left-circled2",
      "code": 61840,
      "src": "fontawesome"
    },
    {
      "uid": "d0673ef38e1c458a6de52aad2a2f800d",
      "css": "right-circled2",
      "code": 61838,
      "src": "fontawesome"
    }
  ]
}